size    n   dist    time
1000000	100	100	0.001058
1000000	200	100	0.003742
1000000	300	100	0.004965
1000000	400	100	0.009172
1000000	500	100	0.014377
1000000	600	100	0.019282
1000000	700	100	0.028691
1000000	800	100	0.033118
1000000	900	100	0.042674
1000000	1000	100	0.053356
1000000	2000	100	0.196498
1000000	3000	100	0.422118
1000000	4000	100	0.702256
1000000	5000	100	1.095711
1000000	6000	100	1.561044
1000000	7000	100	1.971333
1000000	8000	100	2.582769
1000000	9000	100	3.303438
1000000	10000	100	4.047021
1000000	20000	100	22.22995
